\relax 
\bbl@beforestart
\catcode `:\active 
\catcode `;\active 
\catcode `!\active 
\catcode `?\active 
\babel@aux{french}{}
\@writefile{toc}{\contentsline {section}{\numberline {1}Introduction}{1}\protected@file@percent }
\@writefile{lof}{\contentsline {figure}{\numberline {1}{\ignorespaces Algorithme informel de recherche avec retour arrière}}{2}\protected@file@percent }
\@writefile{lof}{\contentsline {figure}{\numberline {2}{\ignorespaces Algorithme donnant toutes les solutions}}{3}\protected@file@percent }
\@writefile{toc}{\contentsline {section}{\numberline {2}Description du problème}{4}\protected@file@percent }
\@writefile{toc}{\contentsline {section}{\numberline {3}Algorithme résolveur}{4}\protected@file@percent }
\@writefile{lof}{\contentsline {figure}{\numberline {3}{\ignorespaces Algorithme résolvant une grille de Sudoku}}{6}\protected@file@percent }
\@writefile{lof}{\contentsline {figure}{\numberline {4}{\ignorespaces Lexique de l'algorithme résolveur}}{7}\protected@file@percent }
\@writefile{toc}{\contentsline {section}{\numberline {4}Algorithme donnant toutes les solutions}{7}\protected@file@percent }
\@writefile{lof}{\contentsline {figure}{\numberline {5}{\ignorespaces Algorithme donnant toutes les grilles possibles}}{8}\protected@file@percent }
\@writefile{toc}{\contentsline {section}{\numberline {5}Conclusion}{9}\protected@file@percent }
\@writefile{toc}{\contentsline {section}{\numberline {A}Annexe : Fonction EstLégal}{i}\protected@file@percent }
