\babel@toc {french}{}
\contentsline {section}{\numberline {1}Introduction}{1}% 
\contentsline {section}{\numberline {2}Description du problème}{4}% 
\contentsline {section}{\numberline {3}Algorithme résolveur}{4}% 
\contentsline {section}{\numberline {4}Algorithme donnant toutes les solutions}{7}% 
\contentsline {section}{\numberline {5}Conclusion}{9}% 
\contentsline {section}{\numberline {A}Annexe : Fonction EstLégal}{i}% 
